<?xml version="1.0" encoding="utf-8"?>
<!-- Generator: Adobe Illustrator 19.2.1, SVG Export Plug-In . SVG Version: 6.00 Build 0)  -->
<svg version="1.1" id="Calque_1" xmlns="http://www.w3.org/2000/svg" xmlns:xlink="http://www.w3.org/1999/xlink" x="0px" y="0px"
	 width="22.9px" height="45px" viewBox="0 0 22.9 45" style="enable-background:new 0 0 22.9 45;" xml:space="preserve">
<style type="text/css">
	.st0{fill:#D9D9D9;}
</style>
<g>
	<polygon class="st0" points="0.4,45 0,44.6 22.1,22.5 0,0.4 0.4,0 22.9,22.5 	"/>
</g>
</svg>
