<?xml version="1.0" encoding="utf-8"?>
<!-- Generator: Adobe Illustrator 19.2.1, SVG Export Plug-In . SVG Version: 6.00 Build 0)  -->
<svg version="1.1" id="Calque_1" xmlns="http://www.w3.org/2000/svg" xmlns:xlink="http://www.w3.org/1999/xlink" x="0px" y="0px"
	 width="25px" height="25px" viewBox="0 0 25 25" style="enable-background:new 0 0 25 25;" xml:space="preserve">
<style type="text/css">
	.st0{fill:#FFFFFF;}
</style>
<g>
	<path class="st0" d="M12.5,12l8.6-8.6C18.8,1.3,15.8,0,12.5,0C9.2,0,6.1,1.3,3.9,3.4L12.5,12z"/>
	<path class="st0" d="M21.6,3.9L13,12.5l8.6,8.6c2.1-2.2,3.4-5.3,3.4-8.6C25,9.2,23.7,6.1,21.6,3.9z"/>
	<path class="st0" d="M12.5,13l-8.6,8.6c2.2,2.1,5.3,3.4,8.6,3.4c3.3,0,6.3-1.3,8.6-3.4L12.5,13z"/>
	<path class="st0" d="M12,12.5L3.4,3.9C1.3,6.2,0,9.2,0,12.5c0,3.3,1.3,6.3,3.4,8.6L12,12.5z"/>
</g>
</svg>
