<?xml version="1.0" encoding="utf-8"?>
<!-- Generator: Adobe Illustrator 19.2.1, SVG Export Plug-In . SVG Version: 6.00 Build 0)  -->
<svg version="1.1" id="Capa_1" xmlns="http://www.w3.org/2000/svg" xmlns:xlink="http://www.w3.org/1999/xlink" x="0px" y="0px"
	 width="17px" height="10.9px" viewBox="-149.4 255.5 17 10.9" style="enable-background:new -149.4 255.5 17 10.9;"
	 xml:space="preserve">
<style type="text/css">
	.st0{fill:#FFFFFF;}
</style>
<g>
	<path class="st0" d="M-132.6,260.3c-0.9-1.4-2.1-2.6-3.6-3.5c-1.5-0.9-3.1-1.3-4.7-1.3c-1.7,0-3.2,0.4-4.7,1.3
		c-1.5,0.9-2.7,2-3.6,3.5c-0.1,0.2-0.2,0.4-0.2,0.7c0,0.2,0.1,0.4,0.2,0.7c0.9,1.4,2.1,2.6,3.6,3.5c1.5,0.9,3.1,1.3,4.7,1.3
		c1.7,0,3.2-0.4,4.7-1.3c1.5-0.9,2.7-2,3.6-3.5c0.1-0.2,0.2-0.4,0.2-0.7C-132.4,260.8-132.4,260.6-132.6,260.3z M-142.9,257.8
		c0.6-0.6,1.2-0.8,2-0.8c0.1,0,0.2,0,0.3,0.1c0.1,0.1,0.1,0.2,0.1,0.3c0,0.1,0,0.2-0.1,0.3c-0.1,0.1-0.2,0.1-0.3,0.1
		c-0.5,0-1,0.2-1.4,0.6c-0.4,0.4-0.6,0.9-0.6,1.4c0,0.1,0,0.2-0.1,0.3c-0.1,0.1-0.2,0.1-0.3,0.1c-0.1,0-0.2,0-0.3-0.1
		c-0.1-0.1-0.1-0.2-0.1-0.3C-143.8,259-143.5,258.3-142.9,257.8z M-136.7,264.1c-1.3,0.8-2.6,1.2-4.1,1.2c-1.5,0-2.9-0.4-4.1-1.2
		s-2.3-1.8-3.2-3.1c1-1.5,2.2-2.6,3.6-3.3c-0.4,0.7-0.6,1.4-0.6,2.1c0,1.2,0.4,2.2,1.2,3c0.8,0.8,1.8,1.2,3,1.2c1.2,0,2.2-0.4,3-1.2
		c0.8-0.8,1.2-1.8,1.2-3c0-0.8-0.2-1.5-0.6-2.1c1.4,0.7,2.7,1.9,3.6,3.3C-134.4,262.3-135.5,263.3-136.7,264.1z"/>
</g>
</svg>
