<?xml version="1.0" encoding="utf-8"?>
<!-- Generator: Adobe Illustrator 19.2.1, SVG Export Plug-In . SVG Version: 6.00 Build 0)  -->
<svg version="1.1" id="Layer_1" xmlns="http://www.w3.org/2000/svg" xmlns:xlink="http://www.w3.org/1999/xlink" x="0px" y="0px"
	 width="12px" height="7.6px" viewBox="506.1 494.9 12 7.6" style="enable-background:new 506.1 494.9 12 7.6;"
	 xml:space="preserve">
<style type="text/css">
	.st0{fill:#DA4B42;}
</style>
<g id="XMLID_246_">
	<g id="XMLID_30_">
		<path id="XMLID_31_" class="st0" d="M509.9,498v1.5c0,0,1.5,0,2.1,0c-0.3,1-0.8,1.5-2.1,1.5c-1.3,0-2.2-1-2.2-2.3
			c0-1.3,1-2.3,2.2-2.3c0.7,0,1.1,0.2,1.5,0.6c0.3-0.3,0.3-0.4,1.1-1.1c-0.7-0.6-1.6-1-2.6-1c-2.1,0-3.8,1.7-3.8,3.8
			c0,2.1,1.7,3.8,3.8,3.8c3.1,0,3.9-2.7,3.7-4.6C512.8,498,509.9,498,509.9,498z M516.8,498.1v-1.3h-0.9v1.3h-1.4v0.9h1.4v1.4h0.9
			V499h1.3v-0.9H516.8z"/>
	</g>
</g>
</svg>
